gimp path name = 255
gimp_sub_path_ind = 0
2.00,394.00 2.00,394.00 22.00,393.00 22.00,393.00
gimp_sub_path_ind = 1
75.00,395.00 75.00,395.00 101.00,395.00 101.00,395.00
gimp path name = 245
gimp_sub_path_ind = 0
91.00,323.00 91.00,323.00 105.00,320.00 105.00,320.00
105.00,320.00 105.00,320.00 116.00,322.00 116.00,322.00
116.00,322.00 116.00,322.00 120.00,330.00 121.00,330.00
gimp path name = 240
gimp_sub_path_ind = 0
127.50,318.50 127.50,318.50 132.00,325.50 132.00,325.50
132.00,325.50 132.00,325.50 130.50,339.00 130.50,339.00
130.50,339.00 130.50,339.00 127.00,351.00 127.00,351.00
127.00,351.00 127.00,351.00 122.50,366.50 122.50,366.50
122.50,366.50 122.50,366.50 119.50,380.00 119.50,380.00
119.50,380.00 119.50,380.00 115.50,391.00 115.50,391.00
gimp path name = 225
gimp_sub_path_ind = 0
165.00,309.00 165.00,309.00 180.00,314.00 180.00,314.00
180.00,314.00 180.00,314.00 191.00,322.00 191.00,322.00
191.00,322.00 191.00,322.00 198.00,331.00 198.00,331.00
198.00,331.00 198.00,331.00 203.00,345.00 203.00,345.00
gimp path name = 216
gimp_sub_path_ind = 0
213.00,71.00 213.00,71.00 226.00,94.00 226.00,94.00
226.00,94.00 226.00,94.00 235.00,108.00 235.00,108.00
235.00,108.00 235.00,108.00 242.00,120.00 242.00,120.00
242.00,120.00 242.00,120.00 247.00,130.00 247.00,130.00
247.00,130.00 247.00,130.00 262.00,149.00 262.00,149.00
gimp path name = 212
gimp_sub_path_ind = 0
262.00,162.00 262.00,162.00 274.00,186.00 274.00,186.00
274.00,186.00 274.00,186.00 285.00,214.00 285.00,214.00
285.00,214.00 285.00,214.00 291.00,233.00 291.00,233.00
291.00,233.00 291.00,233.00 299.00,264.00 299.00,264.00
299.00,264.00 299.00,264.00 305.00,298.00 305.00,298.00
305.00,298.00 305.00,298.00 305.00,328.00 305.00,328.00
305.00,328.00 305.00,328.00 306.00,348.00 306.00,348.00
306.00,348.00 306.00,348.00 305.00,370.00 305.00,370.00
305.00,370.00 305.00,370.00 302.00,389.00 302.00,389.00
gimp path name = 212 #1
gimp_sub_path_ind = 0
201.00,61.00 202.00,61.00 218.00,50.00 218.00,50.00
gimp path name = 210
gimp_sub_path_ind = 0
197.00,80.00 197.00,80.00 204.00,90.00 204.00,90.00
204.00,90.00 204.00,90.00 206.00,104.00 206.00,104.00
206.00,104.00 206.00,104.00 213.00,116.00 213.00,116.00
213.00,116.00 213.00,116.00 222.00,127.00 222.00,127.00
222.00,127.00 222.00,127.00 230.00,136.00 230.00,136.00
230.00,136.00 230.00,136.00 242.00,147.00 242.00,147.00
gimp_sub_path_ind = 1
236.00,53.00 236.00,53.00 243.00,58.00 243.00,58.00
243.00,58.00 243.00,58.00 254.00,67.00 254.00,67.00
254.00,67.00 254.00,67.00 265.00,75.00 265.00,75.00
265.00,75.00 265.00,75.00 275.00,85.00 275.00,85.00
275.00,85.00 275.00,85.00 278.00,98.00 278.00,98.00
278.00,98.00 278.00,98.00 279.00,110.00 279.00,110.00
279.00,110.00 279.00,110.00 278.00,123.00 278.00,123.00
gimp path name = 205
gimp_sub_path_ind = 0
303.00,133.00 303.00,134.00 318.00,163.00 318.00,163.00
318.00,163.00 318.00,163.00 324.00,186.00 324.00,186.00
324.00,186.00 324.00,186.00 332.00,207.00 332.00,209.00
332.00,209.00 332.00,211.00 339.00,248.00 339.00,248.00
339.00,248.00 339.00,248.00 345.00,279.00 345.00,279.00
345.00,279.00 345.00,279.00 350.00,302.00 350.00,302.00
350.00,302.00 350.00,302.00 349.00,321.00 349.00,323.00
349.00,323.00 349.00,325.00 348.00,358.00 348.00,358.00
348.00,358.00 348.00,358.00 345.00,390.00 345.00,390.00
gimp_sub_path_ind = 1
205.00,189.00 205.00,189.00 214.00,189.00 214.00,189.00
214.00,189.00 214.00,189.00 222.00,190.00 223.00,191.00
223.00,191.00 224.00,192.00 232.00,200.00 232.00,200.00
232.00,200.00 232.00,200.00 237.00,213.00 237.00,213.00
237.00,213.00 237.00,213.00 242.00,224.00 242.00,224.00
242.00,224.00 242.00,224.00 243.00,243.00 243.00,243.00
243.00,243.00 243.00,243.00 241.00,255.00 241.00,255.00
241.00,255.00 241.00,255.00 236.00,266.00 236.00,266.00
236.00,266.00 236.00,266.00 239.00,277.00 239.00,277.00
239.00,277.00 239.00,277.00 247.00,286.00 247.00,286.00
247.00,286.00 247.00,286.00 253.00,294.00 253.00,294.00
253.00,294.00 253.00,294.00 250.00,308.00 250.00,308.00
250.00,308.00 250.00,308.00 253.00,328.00 253.00,328.00
253.00,328.00 253.00,328.00 231.00,393.00 231.00,393.00
gimp path name = 204
gimp_sub_path_ind = 0
221.00,141.00 221.00,141.00 213.00,131.00 213.00,131.00
213.00,131.00 213.00,131.00 200.00,114.00 200.00,114.00
200.00,114.00 200.00,114.00 194.00,96.00 194.00,96.00
194.00,96.00 194.00,96.00 189.00,74.00 189.00,74.00
189.00,74.00 189.00,74.00 195.00,50.00 195.00,50.00
195.00,50.00 195.00,50.00 210.00,35.00 210.00,35.00
210.00,35.00 210.00,35.00 233.00,34.00 233.00,34.00
233.00,34.00 233.00,34.00 252.00,35.00 252.00,35.00
252.00,35.00 252.00,35.00 269.00,49.00 270.00,49.00
270.00,49.00 271.00,49.00 284.00,61.00 284.00,61.00
284.00,61.00 284.00,61.00 290.00,73.00 290.00,73.00
290.00,73.00 290.00,73.00 296.00,83.00 296.00,83.00
296.00,83.00 296.00,83.00 297.00,106.00 297.00,106.00
gimp path name = 196
gimp_sub_path_ind = 0
352.00,190.00 352.00,190.00 357.00,215.00 357.00,215.00
357.00,215.00 357.00,215.00 362.00,237.00 362.00,237.00
362.00,237.00 362.00,237.00 370.00,263.00 370.00,263.00
370.00,263.00 370.00,263.00 374.00,296.00 374.00,296.00
374.00,296.00 374.00,296.00 376.00,323.00 376.00,323.00
376.00,323.00 376.00,323.00 378.00,340.00 378.00,340.00
378.00,340.00 378.00,340.00 371.00,347.00 371.00,347.00
371.00,347.00 371.00,347.00 368.00,395.00 368.00,395.00
gimp path name = 192
gimp_sub_path_ind = 0
372.00,188.00 372.00,188.00 364.00,194.00 364.00,194.00
364.00,194.00 364.00,194.00 364.00,205.00 364.00,205.00
364.00,205.00 364.00,205.00 366.00,220.00 366.00,220.00
gimp path name = 192 #1
gimp_sub_path_ind = 0
328.00,130.00 328.00,130.00 342.00,136.00 342.00,136.00
342.00,136.00 342.00,136.00 352.00,152.00 352.00,152.00
352.00,152.00 352.00,152.00 358.00,167.00 358.00,167.00
358.00,167.00 358.00,167.00 363.00,179.00 363.00,179.00
gimp path name = 182
gimp_sub_path_ind = 0
453.00,205.00 453.00,205.00 451.00,216.00 451.00,216.00
gimp path name = 100
gimp_sub_path_ind = 0
594.00,323.00 594.00,323.00 594.00,338.00 594.00,338.00
gimp path name = 090
gimp_sub_path_ind = 0
569.00,307.00 569.00,307.00 568.00,322.00 568.00,322.00
gimp path name = 040
gimp_sub_path_ind = 0
77.00,5.00 77.00,5.00 81.00,102.00 81.00,102.00
81.00,102.00 81.00,102.00 87.00,184.00 87.00,184.00
87.00,184.00 87.00,184.00 96.00,309.00 96.00,309.00
gimp path name = 033
gimp_sub_path_ind = 0
158.00,395.00 158.00,395.00 219.00,393.00 219.00,393.00
gimp_sub_path_ind = 1
380.00,394.00 380.00,394.00 591.00,395.00 591.00,395.00
gimp path name = 030
gimp_sub_path_ind = 0
450.00,4.00 450.00,4.00 442.00,192.00 442.00,192.00
gimp_sub_path_ind = 1
440.00,227.00 440.00,227.00 430.00,389.00 430.00,389.00
gimp_sub_path_ind = 2
528.00,11.00 528.00,11.00 529.00,109.00 529.00,109.00
529.00,109.00 529.00,109.00 517.00,225.00 517.00,225.00
517.00,225.00 517.00,225.00 524.00,340.00 524.00,340.00
524.00,340.00 524.00,340.00 524.00,369.00 524.00,369.00
gimp_sub_path_ind = 3
440.00,390.00 440.00,390.00 548.00,385.00 548.00,385.00
gimp path name = 020
gimp_sub_path_ind = 0
109.00,3.00 109.00,3.00 110.00,75.00 110.00,75.00
110.00,75.00 110.00,75.00 116.00,174.00 116.00,174.00
116.00,174.00 116.00,174.00 125.00,307.00 125.00,307.00
gimp path name = 020 #1
gimp_sub_path_ind = 0
38.00,72.00 38.00,72.00 45.00,318.00 45.00,318.00
gimp_sub_path_ind = 1
44.00,391.00 44.00,391.00 62.00,390.00 62.00,390.00
gimp path name = 000
gimp_sub_path_ind = 0
15.00,29.00 15.00,29.00 54.00,30.00 54.00,30.00
gimp_sub_path_ind = 1
94.00,10.00 94.00,10.00 96.00,44.00 96.00,44.00
gimp_sub_path_ind = 2
156.00,256.00 156.00,256.00 155.00,196.00 155.00,196.00
155.00,196.00 155.00,196.00 155.00,147.00 155.00,147.00
155.00,147.00 155.00,147.00 156.00,97.00 156.00,95.00
156.00,95.00 156.00,93.00 162.00,42.00 162.00,42.00
162.00,42.00 162.00,42.00 204.00,12.00 204.00,12.00
204.00,12.00 204.00,12.00 271.00,11.00 271.00,11.00
271.00,11.00 271.00,11.00 336.00,29.00 336.00,29.00
336.00,29.00 336.00,29.00 344.00,70.00 344.00,70.00
344.00,70.00 344.00,70.00 378.00,163.00 378.00,163.00
gimp_sub_path_ind = 3
376.00,233.00 376.00,233.00 382.00,279.00 382.00,279.00
gimp_sub_path_ind = 4
393.00,4.00 393.00,4.00 390.00,180.00 390.00,180.00
gimp_sub_path_ind = 5
390.00,231.00 390.00,231.00 385.00,351.00 385.00,351.00
gimp_sub_path_ind = 6
209.00,355.00 209.00,355.00 234.00,353.00 234.00,353.00
